calculate the virtual dataset of a patient — Virtual_med_one • pmed
…
#> 167 dxagx3662         outp     2020-06-24       TG      7 2020-06-24
#> 168 dxagx3662         outp     2020-06-24      WBC     13 2020-06-24
#> 169 dxagx3662         outp     2020-06-24      LDL      3 2020-06-24
#> 170 svzdx2060         outp     2020-07-27       TG     10 2020-07-27
#> 171 svzdx2060         outp     2020-07-27      WBC     13 2020-07-27
#> 172 svzdx2060         outp     2020-07-27      HDL      3 2020-07-27
#> 173 svzdx2060         outp     2020-07-27      LDL      2 2020-07-27
#> 174 nitlg1679         Hosp     2020-08-17       TG     13 2020-08-17
#> 175 nitlg1679         Hosp     2020-08-17      LDL      4 2020-08-17
#> 176 nitlg1679         Hosp     2020-08-17    HbA1c     12 2020-08-17
#> 177 nitlg1679         Hosp     2020-08-17      WBC     14 2020-08-17
#> 178 nitlg1679         Hosp     2020-08-17      HDL      5 2020-08-17
#> 
#> $diag
#> # A tibble: 39 × 5
#>    visit_id  patient_type admission_date diag_date  diag_union                  
#>    <chr>     <chr>        <date>         <date>     <chr>                       
#>  1 gxioj2964 Hosp         2014-11-20     2014-11-20 Symptomatic neuropathy,Stro…
#>  2 dbjmj5676 Hosp         2014-12-09     2014-12-09 Dementia,Connective tissue …
#>  3 cqaix5066 Hosp         2014-12-23     2014-12-23 Mild liver disease,Dementia…
#>  4 ddzxl1821 outp         2014-12-24     2014-12-24 NA                          
#>  5 wkmzj1037 outp         2015-01-13     2015-01-13 NA,Dementia,Moderate and se…
#>  6 wqudj3630 outp         2015-01-16     2015-01-16 Lymphatic carcinoma,Moderat…
#>  7 rugrj5988 outp         2015-02-06     2015-02-06 NA,diabetes,myocardial infa…
#>  8 oezbz4107 Hosp         2015-02-15     2015-02-15 diabetes,Mild liver disease…
#>  9 keksr5885 outp         2015-04-16     2015-04-16 Lymphatic carcinoma,NA,Mild…
#> 10 auphy4493 outp         2015-05-01     2015-05-01 high blood pressure,Mild li…
#> # … with 29 more rows
…
