calculate the virtual dataset of a patient — Virtual_med_one • pmed
…
#> 159 svjhc1783         outp     2020-06-04       TC      6 2020-06-05
#> 160 djiue5325         outp     2020-06-25       TC      2 2020-06-26
#> 161 djiue5325         outp     2020-06-25      WBC     11 2020-06-26
#> 162 djiue5325         outp     2020-06-25       TG      8 2020-06-26
#> 163 cknsq2879         Hosp     2020-07-18       TG     15 2020-07-19
#> 164 cknsq2879         Hosp     2020-07-18      HDL      4 2020-07-19
#> 165 cknsq2879         Hosp     2020-07-18      WBC     20 2020-07-19
#> 166 tkpft4981         Hosp     2020-10-25      WBC      3 2020-10-26
#> 167 tkpft4981         Hosp     2020-10-25      LDL      1 2020-10-26
#> 168 tkpft4981         Hosp     2020-10-25      HDL      2 2020-10-26
#> 169 tkpft4981         Hosp     2020-10-25       TC      7 2020-10-26
#> 170 tkpft4981         Hosp     2020-10-25    HbA1c      7 2020-10-26
#> 
#> $diag
#> # A tibble: 40 × 5
#>    visit_id  patient_type admission_date diag_date  diag_union                  
#>    <chr>     <chr>        <date>         <date>     <chr>                       
#>  1 fnhjl5940 Hosp         2014-01-22     2014-01-23 Lymphatic carcinoma,Periphe…
#>  2 ieetc5356 Hosp         2014-02-14     2014-02-15 diabetes,Peptic ulcers,Stro…
#>  3 svpiu3306 Hosp         2014-07-07     2014-07-08 Stroke,diabetes,Dyslipidemi…
#>  4 ytyga3981 outp         2014-10-18     2014-10-19 Symptomatic neuropathy,Lymp…
#>  5 tntmb2887 Hosp         2014-11-27     2014-11-28 NA,Lymphatic carcinoma,Peri…
#>  6 qnoqv3107 outp         2015-01-25     2015-01-26 NA                          
#>  7 fmsbq3634 Hosp         2015-01-26     2015-01-27 NA,Peripheral vascular dise…
#>  8 fheez3668 Hosp         2015-05-20     2015-05-21 NA,Dyslipidemia,Chronic lun…
#>  9 qrcql3396 outp         2015-06-27     2015-06-28 Peripheral vascular disease…
#> 10 illqe2480 Hosp         2016-01-26     2016-01-27 Moderate and severe nephrop…
#> # … with 30 more rows
…
